{
	"timestamp": "2017-11-25T10:02:26.756Z",
	"deviceId": "1234foo",
	"grade" : "good|short|bumpy",
	"sensorData": [
		{
			"milliseconds": 100,
			"acceleration": {
				"x": 1.323,
				"y": 32.112,
				"z": 0.32
			},
			"rotation": {
				"x": 1.323,
				"y": 32.112,
				"z": 0.32
			}
		}
	]
}
